%YAML 1.1
%TAG !u! tag:unity3d.com,2011:
--- !u!21 &2100000
Material:
  serializedVersion: 6
  m_ObjectHideFlags: 0
  m_PrefabParentObject: {fileID: 0}
  m_PrefabInternal: {fileID: 0}
  m_Name: Trail
  m_Shader: {fileID: 4800000, guid: 79c8e83054f3f4a4b966864a6812dfce, type: 3}
  m_ShaderKeywords: 
  m_LightmapFlags: 5
  m_CustomRenderQueue: -1
  stringTagMap: {}
  m_SavedProperties:
    serializedVersion: 2
    m_TexEnvs:
    - first:
        name: _BumpMap
      second:
        m_Texture: {fileID: 2800000, guid: 8b5ddfcee49eda9479177d4aaeb164f6, type: 3}
        m_Scale: {x: 0.2, y: 1}
        m_Offset: {x: 0, y: 0}
    - first:
        name: _MainTex
      second:
        m_Texture: {fileID: 2800000, guid: dd27607fe3bd52d4c84a5bd18e528fd5, type: 3}
        m_Scale: {x: 1, y: 1}
        m_Offset: {x: 0, y: 0}
    m_Floats:
    - first:
        name: _BumpAmt
      second: 100
    - first:
        name: _ColorStrength
      second: 1
    - first:
        name: _CutOutLightCore
      second: 0.5
    - first:
        name: _InvFade
      second: 3
    m_Colors:
    - first:
        name: _Color
      second: {r: 0.32352942, g: 0.5521299, b: 1, a: 1}
    - first:
        name: _TintColor
      second: {r: 1, g: 0.5176471, b: 0, a: 1}
