%YAML 1.1
%TAG !u! tag:unity3d.com,2011:
--- !u!1045 &1
EditorBuildSettings:
  m_ObjectHideFlags: 0
  serializedVersion: 2
  m_Scenes:
  - enabled: 0
    path: Assets/SCENES/Lobby.unity
    guid: eb6b2ae6f61e342319a30c585bdfa89b
  - enabled: 0
    path: Assets/SCENES/InGame.unity
    guid: de743aa5c0c60476797c0a30a13dd2bd
  - enabled: 1
    path: Assets/SCENES/_preload.unity
    guid: a88dd5dfd6e17304cb9e2bd6c45942d5
  - enabled: 1
    path: Assets/SCENES/ProtoLobby.unity
    guid: 1482e2923d72b664393b3f623eeb69db
  - enabled: 1
    path: Assets/SCENES/LobbyAttackScene.unity
    guid: b1b3a3d435b824942ae5008e9208a733
  - enabled: 1
    path: Assets/SCENES/Login.unity
    guid: 7f9f4d399b78f4f41834595197707f33
  - enabled: 1
    path: Assets/SCENES/Biology/biology_1_1.unity
    guid: 1f4b594bc77a7864b8ab2bd718e20e85
  - enabled: 1
    path: Assets/SCENES/CanvasUI_CharacterCustomization.unity
    guid: c2fea9f640b6e4076a1703925dafe3f4
